{
    "names": {
	"cawaker": "ed7ecd58924f0cffa176a06f9f4216b64c98f20bb41533ab050940c29ea4ff95",
	"cykuza": "11be7dbc6e3640bca195f671f64a3bcf8cab3de344503568797bd43d82a5f8e9",
	"digi": "701fdb1ab3fafe1f193a7a7aaa5ce2a3b898d3d75be367268965203846b2c1b3",
	"ghost": "ca2b9e538c683e43fcbbde6190aa208d5301a0980bbec66c5fc8c20e9bb358b6",
	"neuromancer": "e1637b25f5ba4950cd091242d5e215a284bc61e3b01da826b0e332d7857f0282",
	"mich": "1275d135ac80023879412b9fe19f62ae68d8f38365dafcee384fb83d1062513f",
	"ruaxxx": "807b1a127aa60557f18ad9e0db0a357ce67834851290172a1ef5d9930a74adab",

	"<new_user>": "<hex_pub_key>"

    }
}
